%!PS-Adobe-3.0 EPSF-3.0
%%Creator: MATLAB, The MathWorks, Inc. Version 8.1.0.604 (R2013a). Operating System: Linux 4.4.0-59-generic #80-Ubuntu SMP Fri Jan 6 17:47:47 UTC 2017 x86_64.
%%Title: /home/sdb/Dropbox/EyeTrackingMarketing/original.eps
%%CreationDate: 01/25/2017  09:30:51
%%DocumentNeededFonts: Helvetica
%%DocumentProcessColors: Cyan Magenta Yellow Black
%%LanguageLevel: 2
%%Pages: 1
%%BoundingBox:    81   227   529   564
%%EndComments

%%BeginProlog
% MathWorks dictionary
/MathWorks 160 dict begin
% definition operators
/bdef {bind def} bind def
/ldef {load def} bind def
/xdef {exch def} bdef
/xstore {exch store} bdef
% operator abbreviations
/c  /clip ldef
/cc /concat ldef
/cp /closepath ldef
/gr /grestore ldef
/gs /gsave ldef
/mt /moveto ldef
/np /newpath ldef
/cm /currentmatrix ldef
/sm /setmatrix ldef
/rm /rmoveto ldef
/rl /rlineto ldef
/s {show newpath} bdef
/sc {setcmykcolor} bdef
/sr /setrgbcolor ldef
/sg /setgray ldef
/w /setlinewidth ldef
/j /setlinejoin ldef
/cap /setlinecap ldef
/rc {rectclip} bdef
/rf {rectfill} bdef
% page state control
/pgsv () def
/bpage {/pgsv save def} bdef
/epage {pgsv restore} bdef
/bplot /gsave ldef
/eplot {stroke grestore} bdef
% orientation switch
/portraitMode 0 def /landscapeMode 1 def /rotateMode 2 def
% coordinate system mappings
/dpi2point 0 def
% font control
/FontSize 0 def
/FMS {/FontSize xstore findfont [FontSize 0 0 FontSize neg 0 0]
  makefont setfont} bdef
/reencode {exch dup where {pop load} {pop StandardEncoding} ifelse
  exch dup 3 1 roll findfont dup length dict begin
  { 1 index /FID ne {def}{pop pop} ifelse } forall
  /Encoding exch def currentdict end definefont pop} bdef
/isroman {findfont /CharStrings get /Agrave known} bdef
/FMSR {3 1 roll 1 index dup isroman {reencode} {pop pop} ifelse
  exch FMS} bdef
/csm {1 dpi2point div -1 dpi2point div scale neg translate
 dup landscapeMode eq {pop -90 rotate}
  {rotateMode eq {90 rotate} if} ifelse} bdef
% line types: solid, dotted, dashed, dotdash
/SO { [] 0 setdash } bdef
/DO { [.5 dpi2point mul 4 dpi2point mul] 0 setdash } bdef
/DA { [6 dpi2point mul] 0 setdash } bdef
/DD { [.5 dpi2point mul 4 dpi2point mul 6 dpi2point mul 4
  dpi2point mul] 0 setdash } bdef
% macros for lines and objects
/L {lineto stroke} bdef
/MP {3 1 roll moveto 1 sub {rlineto} repeat} bdef
/AP {{rlineto} repeat} bdef
/PDlw -1 def
/W {/PDlw currentlinewidth def setlinewidth} def
/PP {closepath eofill} bdef
/DP {closepath stroke} bdef
/MR {4 -2 roll moveto dup  0 exch rlineto exch 0 rlineto
  neg 0 exch rlineto closepath} bdef
/FR {MR stroke} bdef
/PR {MR fill} bdef
/L1i {{currentfile picstr readhexstring pop} image} bdef
/tMatrix matrix def
/MakeOval {newpath tMatrix currentmatrix pop translate scale
0 0 1 0 360 arc tMatrix setmatrix} bdef
/FO {MakeOval stroke} bdef
/PO {MakeOval fill} bdef
/PD {currentlinewidth 2 div 0 360 arc fill
   PDlw -1 eq not {PDlw w /PDlw -1 def} if} def
/FA {newpath tMatrix currentmatrix pop translate scale
  0 0 1 5 -2 roll arc tMatrix setmatrix stroke} bdef
/PA {newpath tMatrix currentmatrix pop	translate 0 0 moveto scale
  0 0 1 5 -2 roll arc closepath tMatrix setmatrix fill} bdef
/FAn {newpath tMatrix currentmatrix pop translate scale
  0 0 1 5 -2 roll arcn tMatrix setmatrix stroke} bdef
/PAn {newpath tMatrix currentmatrix pop translate 0 0 moveto scale
  0 0 1 5 -2 roll arcn closepath tMatrix setmatrix fill} bdef
/vradius 0 def /hradius 0 def /lry 0 def
/lrx 0 def /uly 0 def /ulx 0 def /rad 0 def
/MRR {/vradius xdef /hradius xdef /lry xdef /lrx xdef /uly xdef
  /ulx xdef newpath tMatrix currentmatrix pop ulx hradius add uly
  vradius add translate hradius vradius scale 0 0 1 180 270 arc 
  tMatrix setmatrix lrx hradius sub uly vradius add translate
  hradius vradius scale 0 0 1 270 360 arc tMatrix setmatrix
  lrx hradius sub lry vradius sub translate hradius vradius scale
  0 0 1 0 90 arc tMatrix setmatrix ulx hradius add lry vradius sub
  translate hradius vradius scale 0 0 1 90 180 arc tMatrix setmatrix
  closepath} bdef
/FRR {MRR stroke } bdef
/PRR {MRR fill } bdef
/MlrRR {/lry xdef /lrx xdef /uly xdef /ulx xdef /rad lry uly sub 2 div def
  newpath tMatrix currentmatrix pop ulx rad add uly rad add translate
  rad rad scale 0 0 1 90 270 arc tMatrix setmatrix lrx rad sub lry rad
  sub translate rad rad scale 0 0 1 270 90 arc tMatrix setmatrix
  closepath} bdef
/FlrRR {MlrRR stroke } bdef
/PlrRR {MlrRR fill } bdef
/MtbRR {/lry xdef /lrx xdef /uly xdef /ulx xdef /rad lrx ulx sub 2 div def
  newpath tMatrix currentmatrix pop ulx rad add uly rad add translate
  rad rad scale 0 0 1 180 360 arc tMatrix setmatrix lrx rad sub lry rad
  sub translate rad rad scale 0 0 1 0 180 arc tMatrix setmatrix
  closepath} bdef
/FtbRR {MtbRR stroke } bdef
/PtbRR {MtbRR fill } bdef
/stri 6 array def /dtri 6 array def
/smat 6 array def /dmat 6 array def
/tmat1 6 array def /tmat2 6 array def /dif 3 array def
/asub {/ind2 exch def /ind1 exch def dup dup
  ind1 get exch ind2 get sub exch } bdef
/tri_to_matrix {
  2 0 asub 3 1 asub 4 0 asub 5 1 asub
  dup 0 get exch 1 get 7 -1 roll astore } bdef
/compute_transform {
  dmat dtri tri_to_matrix tmat1 invertmatrix 
  smat stri tri_to_matrix tmat2 concatmatrix } bdef
/ds {stri astore pop} bdef
/dt {dtri astore pop} bdef
/db {2 copy /cols xdef /rows xdef mul dup 3 mul string
  currentfile 
  3 index 0 eq {/ASCIIHexDecode filter}
  {/ASCII85Decode filter 3 index 2 eq {/RunLengthDecode filter} if }
  ifelse exch readstring pop
  dup 0 3 index getinterval /rbmap xdef
  dup 2 index dup getinterval /gbmap xdef
  1 index dup 2 mul exch getinterval /bbmap xdef pop pop}bdef
/it {gs np dtri aload pop moveto lineto lineto cp c
  cols rows 8 compute_transform 
  rbmap gbmap bbmap true 3 colorimage gr}bdef
/il {newpath moveto lineto stroke}bdef
currentdict end def
%%EndProlog

%%BeginSetup
MathWorks begin

0 cap

end
%%EndSetup

%%Page: 1 1
%%BeginPageSetup
%%PageBoundingBox:    81   227   529   564
MathWorks begin
bpage
%%EndPageSetup

%%BeginObject: obj1
bplot

/dpi2point 12 def
portraitMode 0972 6768 csm

    0     0  5376  4033 rc
85 dict begin %Colortable dictionary
/c0 { 0.000000 0.000000 0.000000 sr} bdef
/c1 { 1.000000 1.000000 1.000000 sr} bdef
/c2 { 0.900000 0.000000 0.000000 sr} bdef
/c3 { 0.000000 0.820000 0.000000 sr} bdef
/c4 { 0.000000 0.000000 0.800000 sr} bdef
/c5 { 0.910000 0.820000 0.320000 sr} bdef
/c6 { 1.000000 0.260000 0.820000 sr} bdef
/c7 { 0.000000 0.820000 0.820000 sr} bdef
c0
1 j
1 sg
   0    0 5377 4034 rf
6 w
0 3287 4166 0 0 -3287 699 3589 4 MP
PP
-4166 0 0 3287 4166 0 0 -3287 699 3589 5 MP stroke
4 w
DO
0 sg
 699 3589 mt  699  302 L
 699  302 mt  699  302 L
1115 3589 mt 1115  302 L
1115  302 mt 1115  302 L
1532 3589 mt 1532  302 L
1532  302 mt 1532  302 L
1948 3589 mt 1948  302 L
1948  302 mt 1948  302 L
2365 3589 mt 2365  302 L
2365  302 mt 2365  302 L
2782 3589 mt 2782  302 L
2782  302 mt 2782  302 L
3198 3589 mt 3198  302 L
3198  302 mt 3198  302 L
3615 3589 mt 3615  302 L
3615  302 mt 3615  302 L
4031 3589 mt 4031  302 L
4031  302 mt 4031  302 L
4448 3589 mt 4448  302 L
4448  302 mt 4448  302 L
4865 3589 mt 4865  302 L
4865  302 mt 4865  302 L
 699 3589 mt 4865 3589 L
4865 3589 mt 4865 3589 L
 699 3275 mt 4865 3275 L
4865 3275 mt 4865 3275 L
 699 2962 mt 4865 2962 L
4865 2962 mt 4865 2962 L
 699 2649 mt 4865 2649 L
4865 2649 mt 4865 2649 L
 699 2336 mt 4865 2336 L
4865 2336 mt 4865 2336 L
 699 2023 mt 4865 2023 L
4865 2023 mt 4865 2023 L
 699 1710 mt 4865 1710 L
4865 1710 mt 4865 1710 L
 699 1397 mt 4865 1397 L
4865 1397 mt 4865 1397 L
 699 1084 mt 4865 1084 L
4865 1084 mt 4865 1084 L
 699  771 mt 4865  771 L
4865  771 mt 4865  771 L
 699  458 mt 4865  458 L
4865  458 mt 4865  458 L
SO
6 w
 699 3589 mt 4865 3589 L
 699 3589 mt  699  302 L
 699 3589 mt  699 3547 L
%%IncludeResource: font Helvetica
/Helvetica /ISOLatin1Encoding 120 FMSR

 666 3734 mt 
(0) s
1115 3589 mt 1115 3547 L
1032 3734 mt 
(0.1) s
1532 3589 mt 1532 3547 L
1449 3734 mt 
(0.2) s
1948 3589 mt 1948 3547 L
1865 3734 mt 
(0.3) s
2365 3589 mt 2365 3547 L
2282 3734 mt 
(0.4) s
2782 3589 mt 2782 3547 L
2699 3734 mt 
(0.5) s
3198 3589 mt 3198 3547 L
3115 3734 mt 
(0.6) s
3615 3589 mt 3615 3547 L
3532 3734 mt 
(0.7) s
4031 3589 mt 4031 3547 L
3948 3734 mt 
(0.8) s
4448 3589 mt 4448 3547 L
4365 3734 mt 
(0.9) s
4865 3589 mt 4865 3547 L
4832 3734 mt 
(1) s
 699 3589 mt  740 3589 L
 598 3633 mt 
(0) s
 699 3275 mt  740 3275 L
 498 3319 mt 
(0.1) s
 699 2962 mt  740 2962 L
 498 3006 mt 
(0.2) s
 699 2649 mt  740 2649 L
 498 2693 mt 
(0.3) s
 699 2336 mt  740 2336 L
 498 2380 mt 
(0.4) s
 699 2023 mt  740 2023 L
 498 2067 mt 
(0.5) s
 699 1710 mt  740 1710 L
 498 1754 mt 
(0.6) s
 699 1397 mt  740 1397 L
 498 1441 mt 
(0.7) s
 699 1084 mt  740 1084 L
 498 1128 mt 
(0.8) s
 699  771 mt  740  771 L
 498  815 mt 
(0.9) s
 699  458 mt  740  458 L
 598  502 mt 
(1) s
%%IncludeResource: font Helvetica
/Helvetica /ISOLatin1Encoding 144 FMSR

2581 3895 mt 
(Recall) s
 411 2242 mt  -90 rotate
(Precision) s
90 rotate
%%IncludeResource: font Helvetica
/Helvetica /ISOLatin1Encoding 168 FMSR

1930  197 mt 
(Accuracy face detector) s
gs 699 302 4167 3288 rc
24 w
/c8 { 0.000000 0.000000 1.000000 sr} bdef
c8
-199 43 -130 87 -20 11 -125 48 -531 -7 -21 4 -105 -108 -380 41 
-55 -18 -151 -101 -361 -40 -259 -11 -81 -83 -161 -70 -185 31 -61 20 
-183 -18 -54 -48 -15 -1 -100 -25 -97 -28 -50 -26 -100 -3 -50 3 
-10 3 -21 -14 -1 -13 -19 -16 -6 -13 -17 -16 -16 -24 -1 -51 
-16 5 -16 -15 -28 -32 0 -24 -2 -56 -14 -31 -1 -14 -14 -40 
-1 -18 -29 -34 -1 -27 -4 -31 0 -48 -1 -23 -14 -42 -1 -33 
4561 1755 49 MP stroke
gr

24 w
c8
0 sg
%%IncludeResource: font Helvetica
/Helvetica /ISOLatin1Encoding 120 FMSR

 682 3632 mt 
( ) s
4849  344 mt 
( ) s
6 w
1 sg
0 188 1000 0 0 -188 3806 550 4 MP
PP
-1000 0 0 188 1000 0 0 -188 3806 550 5 MP stroke
4 w
DO
SO
6 w
0 sg
3806  550 mt 4806  550 L
3806  362 mt 4806  362 L
3806  550 mt 3806  362 L
4806  550 mt 4806  362 L
3806  550 mt 4806  550 L
3806  550 mt 3806  362 L
3806  550 mt 4806  550 L
3806  362 mt 4806  362 L
3806  550 mt 3806  362 L
4806  550 mt 4806  362 L
4256  499 mt 
(result110) s
gs 3806 362 1001 189 rc
24 w
c8
345 0 3875 456 2 MP stroke
6 w
gr

c8

end %%Color Dict

eplot
%%EndObject

epage
end

showpage

%%Trailer
%%EOF
