-0.767515	410	248	37	0.6231	0.917226
1.56224	406	243	39	0.625578	0.91236
3.89199	406	239	39	0.629457	0.91236
6.22174	405	232	40	0.635793	0.910112
8.55149	402	222	41	0.644231	0.907449
10.8812	399	210	42	0.655172	0.904762
13.211	399	203	42	0.662791	0.904762
15.5407	399	184	42	0.684391	0.904762
17.8705	398	178	43	0.690972	0.902494
20.2002	395	172	43	0.696649	0.901826
22.53	394	160	43	0.711191	0.901602
24.8597	393	151	43	0.722426	0.901376
27.1895	391	147	43	0.726766	0.900922
29.5192	388	144	45	0.729323	0.896074
31.849	383	138	46	0.735125	0.892774
34.1787	383	131	46	0.745136	0.892774
36.5085	382	127	46	0.750491	0.892523
38.8382	377	117	47	0.763158	0.889151
41.168	375	107	48	0.778008	0.886525
43.4977	368	103	50	0.781316	0.880383
45.8275	362	96	52	0.790393	0.874396
48.1572	358	93	53	0.793792	0.871046
50.487	352	90	54	0.79638	0.866995
52.8167	346	81	56	0.810304	0.860697
55.1465	339	76	58	0.816867	0.853904
57.4762	334	73	58	0.820639	0.852041
59.806	329	70	61	0.824561	0.84359
62.1357	323	69	63	0.82398	0.836788
64.4655	319	67	66	0.826425	0.828571
66.7952	310	65	70	0.826667	0.815789
69.125	301	63	72	0.826923	0.806971
71.4547	291	57	78	0.836207	0.788618
73.7845	268	54	91	0.832298	0.746518
76.1142	265	52	94	0.835962	0.738162
78.444	254	45	100	0.849498	0.717514
80.7737	235	40	113	0.854545	0.675287
83.1035	220	33	120	0.869565	0.647059
85.4332	206	30	128	0.872881	0.616766
87.763	165	26	157	0.863874	0.512422
90.0927	150	24	168	0.862069	0.471698
92.4225	133	21	182	0.863636	0.422222
94.7522	97	13	208	0.881818	0.318033
97.082	88	13	217	0.871287	0.288525
99.4117	83	13	222	0.864583	0.272131
101.741	51	7	248	0.87931	0.170569
104.071	39	4	260	0.906977	0.130435
106.401	39	4	260	0.906977	0.130435
108.731	17	3	281	0.85	0.057047
111.06	10	1	288	0.909091	0.033557
113.39	10	1	288	0.909091	0.033557
115.72	10	1	288	0.909091	0.033557
