-0.606549	591	512	236	0.535811	0.714631
1.71998	590	499	236	0.541781	0.714286
4.04651	586	487	236	0.546132	0.712895
6.37304	583	477	238	0.55	0.71011
8.69958	582	452	239	0.562863	0.708892
11.0261	579	431	241	0.573267	0.706098
13.3526	579	411	241	0.584848	0.706098
15.6792	576	390	243	0.596273	0.703297
18.0057	574	375	243	0.604847	0.70257
20.3322	569	360	247	0.612487	0.697304
22.6588	566	354	247	0.615217	0.696187
24.9853	560	339	249	0.622914	0.692213
27.3118	557	327	251	0.63009	0.689356
29.6384	553	317	253	0.635632	0.686104
31.9649	552	303	253	0.645614	0.685714
34.2914	550	292	254	0.653207	0.68408
36.6179	547	282	254	0.659831	0.682896
38.9445	543	268	256	0.669544	0.679599
41.271	541	250	258	0.683944	0.677096
43.5975	536	242	258	0.688946	0.675063
45.9241	533	222	261	0.70596	0.671285
48.2506	526	215	266	0.709852	0.664141
50.5771	522	207	267	0.716049	0.661597
52.9037	519	197	268	0.72486	0.659466
55.2302	514	184	271	0.73639	0.654777
57.5567	510	178	274	0.741279	0.65051
59.8833	506	165	277	0.754098	0.646232
62.2098	500	155	282	0.763359	0.639386
64.5363	485	152	293	0.761381	0.623393
66.8628	477	142	299	0.770598	0.614691
69.1894	465	134	307	0.776294	0.602332
71.5159	451	125	317	0.782986	0.58724
73.8424	431	111	333	0.795203	0.564136
76.169	420	101	341	0.806142	0.551905
78.4955	395	93	360	0.809426	0.523179
80.822	364	82	389	0.816143	0.4834
83.1486	334	76	414	0.814634	0.446524
85.4751	312	70	435	0.816754	0.417671
87.8016	260	58	482	0.81761	0.350404
90.1282	227	50	511	0.819495	0.307588
92.4547	217	49	520	0.815789	0.294437
94.7812	172	36	564	0.826923	0.233696
97.1077	154	27	582	0.850829	0.209239
99.4343	154	26	582	0.855556	0.209239
101.761	104	18	630	0.852459	0.141689
104.087	73	13	661	0.848837	0.099455
106.414	73	13	661	0.848837	0.099455
108.74	45	6	688	0.882353	0.0613915
111.067	24	2	709	0.923077	0.0327422
113.393	24	2	709	0.923077	0.0327422
115.72	24	2	709	0.923077	0.0327422
