-0.747862	546	443	177	0.552073	0.755187
1.5815	546	433	177	0.557712	0.755187
3.91085	544	423	178	0.562565	0.753463
6.24021	542	408	178	0.570526	0.752778
8.56957	541	389	178	0.58172	0.752434
10.8989	541	383	178	0.585498	0.752434
13.2283	540	375	178	0.590164	0.752089
15.5576	539	358	178	0.600892	0.751743
17.887	538	341	179	0.612059	0.750349
20.2164	537	321	180	0.625874	0.748954
22.5457	536	308	181	0.635071	0.747559
24.8751	535	293	182	0.646135	0.746165
27.2044	532	286	183	0.650367	0.744056
29.5338	529	279	186	0.654703	0.73986
31.8631	525	261	188	0.667939	0.736325
34.1925	522	252	189	0.674419	0.734177
36.5219	522	245	189	0.680574	0.734177
38.8512	521	231	190	0.692819	0.732771
41.1806	519	223	190	0.699461	0.732017
43.5099	516	219	193	0.702041	0.727786
45.8393	513	209	195	0.710526	0.724576
48.1686	510	202	197	0.716292	0.721358
50.498	508	196	198	0.721591	0.719547
52.8274	502	182	201	0.733918	0.714083
55.1567	499	167	201	0.749249	0.712857
57.4861	495	159	205	0.756881	0.707143
59.8154	489	151	207	0.764062	0.702586
62.1448	478	148	212	0.763578	0.692754
64.4741	469	132	217	0.780366	0.683673
66.8035	455	117	224	0.795455	0.670103
69.1329	445	112	230	0.798923	0.659259
71.4622	431	107	238	0.801115	0.644245
73.7916	409	100	254	0.803536	0.616893
76.1209	395	92	261	0.811088	0.602134
78.4503	380	86	271	0.815451	0.583717
80.7797	339	79	304	0.811005	0.527216
83.109	319	75	322	0.809645	0.49766
85.4384	300	69	339	0.813008	0.469484
87.7678	255	53	374	0.827922	0.405405
90.0971	236	45	390	0.839858	0.376997
92.4265	226	42	398	0.843284	0.362179
94.7558	180	33	435	0.84507	0.292683
97.0852	149	27	460	0.846591	0.244663
99.4146	148	27	460	0.845714	0.243421
101.744	98	20	506	0.830508	0.162252
104.073	76	14	527	0.844444	0.126036
106.403	75	14	528	0.842697	0.124378
108.732	45	7	552	0.865385	0.0753769
111.061	22	5	574	0.814815	0.0369128
113.391	22	5	574	0.814815	0.0369128
