%!PS-Adobe-3.0 EPSF-3.0
%%Creator: MATLAB, The MathWorks, Inc. Version 8.1.0.604 (R2013a). Operating System: Linux 4.4.0-59-generic #80-Ubuntu SMP Fri Jan 6 17:47:47 UTC 2017 x86_64.
%%Title: /home/sdb/Dropbox/EyeTrackingMarketing/untitled.eps
%%CreationDate: 01/25/2017  09:26:13
%%DocumentNeededFonts: Helvetica
%%DocumentProcessColors: Cyan Magenta Yellow Black
%%LanguageLevel: 2
%%Pages: 1
%%BoundingBox:    81   227   529   564
%%EndComments

%%BeginProlog
% MathWorks dictionary
/MathWorks 160 dict begin
% definition operators
/bdef {bind def} bind def
/ldef {load def} bind def
/xdef {exch def} bdef
/xstore {exch store} bdef
% operator abbreviations
/c  /clip ldef
/cc /concat ldef
/cp /closepath ldef
/gr /grestore ldef
/gs /gsave ldef
/mt /moveto ldef
/np /newpath ldef
/cm /currentmatrix ldef
/sm /setmatrix ldef
/rm /rmoveto ldef
/rl /rlineto ldef
/s {show newpath} bdef
/sc {setcmykcolor} bdef
/sr /setrgbcolor ldef
/sg /setgray ldef
/w /setlinewidth ldef
/j /setlinejoin ldef
/cap /setlinecap ldef
/rc {rectclip} bdef
/rf {rectfill} bdef
% page state control
/pgsv () def
/bpage {/pgsv save def} bdef
/epage {pgsv restore} bdef
/bplot /gsave ldef
/eplot {stroke grestore} bdef
% orientation switch
/portraitMode 0 def /landscapeMode 1 def /rotateMode 2 def
% coordinate system mappings
/dpi2point 0 def
% font control
/FontSize 0 def
/FMS {/FontSize xstore findfont [FontSize 0 0 FontSize neg 0 0]
  makefont setfont} bdef
/reencode {exch dup where {pop load} {pop StandardEncoding} ifelse
  exch dup 3 1 roll findfont dup length dict begin
  { 1 index /FID ne {def}{pop pop} ifelse } forall
  /Encoding exch def currentdict end definefont pop} bdef
/isroman {findfont /CharStrings get /Agrave known} bdef
/FMSR {3 1 roll 1 index dup isroman {reencode} {pop pop} ifelse
  exch FMS} bdef
/csm {1 dpi2point div -1 dpi2point div scale neg translate
 dup landscapeMode eq {pop -90 rotate}
  {rotateMode eq {90 rotate} if} ifelse} bdef
% line types: solid, dotted, dashed, dotdash
/SO { [] 0 setdash } bdef
/DO { [.5 dpi2point mul 4 dpi2point mul] 0 setdash } bdef
/DA { [6 dpi2point mul] 0 setdash } bdef
/DD { [.5 dpi2point mul 4 dpi2point mul 6 dpi2point mul 4
  dpi2point mul] 0 setdash } bdef
% macros for lines and objects
/L {lineto stroke} bdef
/MP {3 1 roll moveto 1 sub {rlineto} repeat} bdef
/AP {{rlineto} repeat} bdef
/PDlw -1 def
/W {/PDlw currentlinewidth def setlinewidth} def
/PP {closepath eofill} bdef
/DP {closepath stroke} bdef
/MR {4 -2 roll moveto dup  0 exch rlineto exch 0 rlineto
  neg 0 exch rlineto closepath} bdef
/FR {MR stroke} bdef
/PR {MR fill} bdef
/L1i {{currentfile picstr readhexstring pop} image} bdef
/tMatrix matrix def
/MakeOval {newpath tMatrix currentmatrix pop translate scale
0 0 1 0 360 arc tMatrix setmatrix} bdef
/FO {MakeOval stroke} bdef
/PO {MakeOval fill} bdef
/PD {currentlinewidth 2 div 0 360 arc fill
   PDlw -1 eq not {PDlw w /PDlw -1 def} if} def
/FA {newpath tMatrix currentmatrix pop translate scale
  0 0 1 5 -2 roll arc tMatrix setmatrix stroke} bdef
/PA {newpath tMatrix currentmatrix pop	translate 0 0 moveto scale
  0 0 1 5 -2 roll arc closepath tMatrix setmatrix fill} bdef
/FAn {newpath tMatrix currentmatrix pop translate scale
  0 0 1 5 -2 roll arcn tMatrix setmatrix stroke} bdef
/PAn {newpath tMatrix currentmatrix pop translate 0 0 moveto scale
  0 0 1 5 -2 roll arcn closepath tMatrix setmatrix fill} bdef
/vradius 0 def /hradius 0 def /lry 0 def
/lrx 0 def /uly 0 def /ulx 0 def /rad 0 def
/MRR {/vradius xdef /hradius xdef /lry xdef /lrx xdef /uly xdef
  /ulx xdef newpath tMatrix currentmatrix pop ulx hradius add uly
  vradius add translate hradius vradius scale 0 0 1 180 270 arc 
  tMatrix setmatrix lrx hradius sub uly vradius add translate
  hradius vradius scale 0 0 1 270 360 arc tMatrix setmatrix
  lrx hradius sub lry vradius sub translate hradius vradius scale
  0 0 1 0 90 arc tMatrix setmatrix ulx hradius add lry vradius sub
  translate hradius vradius scale 0 0 1 90 180 arc tMatrix setmatrix
  closepath} bdef
/FRR {MRR stroke } bdef
/PRR {MRR fill } bdef
/MlrRR {/lry xdef /lrx xdef /uly xdef /ulx xdef /rad lry uly sub 2 div def
  newpath tMatrix currentmatrix pop ulx rad add uly rad add translate
  rad rad scale 0 0 1 90 270 arc tMatrix setmatrix lrx rad sub lry rad
  sub translate rad rad scale 0 0 1 270 90 arc tMatrix setmatrix
  closepath} bdef
/FlrRR {MlrRR stroke } bdef
/PlrRR {MlrRR fill } bdef
/MtbRR {/lry xdef /lrx xdef /uly xdef /ulx xdef /rad lrx ulx sub 2 div def
  newpath tMatrix currentmatrix pop ulx rad add uly rad add translate
  rad rad scale 0 0 1 180 360 arc tMatrix setmatrix lrx rad sub lry rad
  sub translate rad rad scale 0 0 1 0 180 arc tMatrix setmatrix
  closepath} bdef
/FtbRR {MtbRR stroke } bdef
/PtbRR {MtbRR fill } bdef
/stri 6 array def /dtri 6 array def
/smat 6 array def /dmat 6 array def
/tmat1 6 array def /tmat2 6 array def /dif 3 array def
/asub {/ind2 exch def /ind1 exch def dup dup
  ind1 get exch ind2 get sub exch } bdef
/tri_to_matrix {
  2 0 asub 3 1 asub 4 0 asub 5 1 asub
  dup 0 get exch 1 get 7 -1 roll astore } bdef
/compute_transform {
  dmat dtri tri_to_matrix tmat1 invertmatrix 
  smat stri tri_to_matrix tmat2 concatmatrix } bdef
/ds {stri astore pop} bdef
/dt {dtri astore pop} bdef
/db {2 copy /cols xdef /rows xdef mul dup 3 mul string
  currentfile 
  3 index 0 eq {/ASCIIHexDecode filter}
  {/ASCII85Decode filter 3 index 2 eq {/RunLengthDecode filter} if }
  ifelse exch readstring pop
  dup 0 3 index getinterval /rbmap xdef
  dup 2 index dup getinterval /gbmap xdef
  1 index dup 2 mul exch getinterval /bbmap xdef pop pop}bdef
/it {gs np dtri aload pop moveto lineto lineto cp c
  cols rows 8 compute_transform 
  rbmap gbmap bbmap true 3 colorimage gr}bdef
/il {newpath moveto lineto stroke}bdef
currentdict end def
%%EndProlog

%%BeginSetup
MathWorks begin

0 cap

end
%%EndSetup

%%Page: 1 1
%%BeginPageSetup
%%PageBoundingBox:    81   227   529   564
MathWorks begin
bpage
%%EndPageSetup

%%BeginObject: obj1
bplot

/dpi2point 12 def
portraitMode 0972 6768 csm

    0     0  5376  4033 rc
90 dict begin %Colortable dictionary
/c0 { 0.000000 0.000000 0.000000 sr} bdef
/c1 { 1.000000 1.000000 1.000000 sr} bdef
/c2 { 0.900000 0.000000 0.000000 sr} bdef
/c3 { 0.000000 0.820000 0.000000 sr} bdef
/c4 { 0.000000 0.000000 0.800000 sr} bdef
/c5 { 0.910000 0.820000 0.320000 sr} bdef
/c6 { 1.000000 0.260000 0.820000 sr} bdef
/c7 { 0.000000 0.820000 0.820000 sr} bdef
c0
1 j
1 sg
   0    0 5377 4034 rf
6 w
0 3287 4166 0 0 -3287 699 3589 4 MP
PP
-4166 0 0 3287 4166 0 0 -3287 699 3589 5 MP stroke
4 w
DO
0 sg
 699 3589 mt  699  302 L
 699  302 mt  699  302 L
1115 3589 mt 1115  302 L
1115  302 mt 1115  302 L
1532 3589 mt 1532  302 L
1532  302 mt 1532  302 L
1948 3589 mt 1948  302 L
1948  302 mt 1948  302 L
2365 3589 mt 2365  302 L
2365  302 mt 2365  302 L
2782 3589 mt 2782  302 L
2782  302 mt 2782  302 L
3198 3589 mt 3198  302 L
3198  302 mt 3198  302 L
3615 3589 mt 3615  302 L
3615  302 mt 3615  302 L
4031 3589 mt 4031  302 L
4031  302 mt 4031  302 L
4448 3589 mt 4448  302 L
4448  302 mt 4448  302 L
4865 3589 mt 4865  302 L
4865  302 mt 4865  302 L
 699 3589 mt 4865 3589 L
4865 3589 mt 4865 3589 L
 699 3275 mt 4865 3275 L
4865 3275 mt 4865 3275 L
 699 2962 mt 4865 2962 L
4865 2962 mt 4865 2962 L
 699 2649 mt 4865 2649 L
4865 2649 mt 4865 2649 L
 699 2336 mt 4865 2336 L
4865 2336 mt 4865 2336 L
 699 2023 mt 4865 2023 L
4865 2023 mt 4865 2023 L
 699 1710 mt 4865 1710 L
4865 1710 mt 4865 1710 L
 699 1397 mt 4865 1397 L
4865 1397 mt 4865 1397 L
 699 1084 mt 4865 1084 L
4865 1084 mt 4865 1084 L
 699  771 mt 4865  771 L
4865  771 mt 4865  771 L
 699  458 mt 4865  458 L
4865  458 mt 4865  458 L
SO
6 w
 699 3589 mt 4865 3589 L
 699 3589 mt  699  302 L
 699 3589 mt  699 3547 L
%%IncludeResource: font Helvetica
/Helvetica /ISOLatin1Encoding 120 FMSR

 666 3734 mt 
(0) s
1115 3589 mt 1115 3547 L
1032 3734 mt 
(0.1) s
1532 3589 mt 1532 3547 L
1449 3734 mt 
(0.2) s
1948 3589 mt 1948 3547 L
1865 3734 mt 
(0.3) s
2365 3589 mt 2365 3547 L
2282 3734 mt 
(0.4) s
2782 3589 mt 2782 3547 L
2699 3734 mt 
(0.5) s
3198 3589 mt 3198 3547 L
3115 3734 mt 
(0.6) s
3615 3589 mt 3615 3547 L
3532 3734 mt 
(0.7) s
4031 3589 mt 4031 3547 L
3948 3734 mt 
(0.8) s
4448 3589 mt 4448 3547 L
4365 3734 mt 
(0.9) s
4865 3589 mt 4865 3547 L
4832 3734 mt 
(1) s
 699 3589 mt  740 3589 L
 598 3633 mt 
(0) s
 699 3275 mt  740 3275 L
 498 3319 mt 
(0.1) s
 699 2962 mt  740 2962 L
 498 3006 mt 
(0.2) s
 699 2649 mt  740 2649 L
 498 2693 mt 
(0.3) s
 699 2336 mt  740 2336 L
 498 2380 mt 
(0.4) s
 699 2023 mt  740 2023 L
 498 2067 mt 
(0.5) s
 699 1710 mt  740 1710 L
 498 1754 mt 
(0.6) s
 699 1397 mt  740 1397 L
 498 1441 mt 
(0.7) s
 699 1084 mt  740 1084 L
 498 1128 mt 
(0.8) s
 699  771 mt  740  771 L
 498  815 mt 
(0.9) s
 699  458 mt  740  458 L
 598  502 mt 
(1) s
%%IncludeResource: font Helvetica
/Helvetica /ISOLatin1Encoding 144 FMSR

2581 3895 mt 
(Recall) s
 411 2242 mt  -90 rotate
(Precision) s
90 rotate
%%IncludeResource: font Helvetica
/Helvetica /ISOLatin1Encoding 168 FMSR

1930  197 mt 
(Accuracy face detector) s
gs 699 302 4167 3288 rc
24 w
/c8 { 0.000000 0.000000 1.000000 sr} bdef
c8
-119 -127 -159 -105 -176 11 -281 10 0 -15 -102 -75 -253 -35 -55 12 
-178 -6 -281 -3 -120 -6 -153 4 -166 -21 -120 -10 -51 -34 -96 -38 
-63 -21 -51 -18 -37 -29 -66 6 -29 -29 -18 -40 -17 -15 -20 -36 
-9 -28 -10 -19 -30 -13 -16 -53 -8 -15 -11 -46 -13 -30 -5 -21 
-7 -23 -2 -32 -13 -17 -12 -22 -17 -25 -4 -8 -22 -24 -3 -27 
-12 -36 0 -36 -12 -32 -5 -41 -11 -12 -6 -13 -2 -19 3676 1911 48 MP stroke
/c9 { 1.000000 0.000000 0.000000 sr} bdef
c9
-161 159 -204 -71 -7 5 -150 -44 -339 48 -5 3 -200 -5 -289 -6 
-62 -10 -118 -38 -267 -46 -118 -11 -123 4 -235 14 -77 -13 -61 -24 
-114 -8 -63 -6 -45 -11 -57 -48 -38 -52 -40 1 -19 -22 -24 -24 
-5 -48 -23 -39 -8 -16 -13 -18 -13 -27 -18 -8 -3 -21 -6 -38 
0 -19 -9 -21 -15 -41 -17 -14 -9 -13 -6 -34 -6 -29 -5 -43 
-6 -35 -2 -34 -1 -15 0 -11 -2 -35 -2 -25 -8 -16 0 -17 
3845 1860 49 MP stroke
/c10 { 0.000000 1.000000 0.000000 sr} bdef
c10
-139 64 -225 -134 -19 15 -204 -43 -392 85 -9 3 -160 -26 -400 -33 
-131 11 -133 1 -286 -16 -122 12 -156 1 -143 2 -107 13 -74 -9 
-120 -4 -78 -6 -48 -7 -63 11 -13 -19 -40 -14 -25 -51 -4 -17 
-33 -25 -13 -41 -11 -32 -13 -23 -4 -35 -1 -23 -7 -27 -8 -45 
-8 -19 -5 -19 -12 -13 -1 -25 -4 -24 -9 -18 -8 -37 -4 -17 
-7 -38 -1 -37 -15 -28 -7 -19 0 -33 -1 -11 0 -43 4149 1773 48 MP stroke
/c11 { 0.000000 0.000000 0.172414 sr} bdef
c11
-100 -303 -290 -101 -9 6 -178 -118 -436 2 -172 -24 -462 16 -110 18 
-163 -26 -255 -12 -197 9 -60 5 -208 -8 -152 -22 -72 4 -92 -4 
-41 -28 -66 -6 -44 -1 -23 11 -40 -13 -56 -15 -37 -7 -29 -33 
-13 -40 -2 -17 -27 -38 -12 -24 -11 -4 -11 -24 -13 -17 -2 -28 
-8 -51 -8 -31 -8 -19 0 -17 -5 -34 -9 -35 -9 -19 -8 -23 
-8 -34 -1 -38 -4 -15 0 -35 -1 -19 -9 -17 0 -30 4378 1717 48 MP stroke
/c12 { 1.000000 0.103448 0.724138 sr} bdef
c12
-98 -185 -306 179 -167 -87 -423 -46 -68 21 -123 33 -434 -57 -207 -5 
-169 6 -435 28 -126 -10 -118 -47 -176 -16 -86 -43 -34 -11 -176 12 
-76 -29 -37 -1 -53 0 -35 -8 -28 2 -35 -13 -8 -11 -28 -21 
-26 -43 -17 -9 -14 -10 -25 -29 -26 -10 -11 -46 -14 -40 -1 -17 
0 -31 -14 -18 -20 -8 -2 -14 -1 -35 -1 -46 -2 -17 -10 -21 
0 -91 -11 -35 -11 -26 -9 -20 0 -12 -21 -8 4520 1638 47 MP stroke
/c13 { 1.000000 0.827586 0.000000 sr} bdef
c13
-226 0 -193 -179 -210 -13 -459 -75 -16 3 -150 -91 -411 -30 -78 14 
-234 -33 -340 -88 -125 16 -76 -46 -238 -28 -128 4 -50 -19 -56 -13 
-82 -9 -73 3 -25 -8 -62 -17 -15 -11 -2 -36 -20 -6 -22 -12 
-12 -32 -2 -25 -31 -16 -12 -48 0 -42 -28 -43 -12 -25 -25 -28 
-13 -17 -2 -28 -24 -35 -2 -31 -17 -22 -17 -13 -14 -36 -12 -27 
-25 -37 -1 -28 -39 -19 -2 -19 -1 -12 0 -31 4394 1746 47 MP stroke
/c14 { 0.000000 0.344828 0.000000 sr} bdef
c14
-199 43 -130 87 -20 11 -125 48 -531 -7 -21 4 -105 -108 -380 41 
-55 -18 -151 -101 -361 -40 -259 -11 -81 -83 -161 -70 -185 31 -61 20 
-183 -18 -54 -48 -15 -1 -100 -25 -97 -28 -50 -26 -100 -3 -50 3 
-10 3 -21 -14 -1 -13 -19 -16 -6 -13 -17 -16 -16 -24 -1 -51 
-16 5 -16 -15 -28 -32 0 -24 -2 -56 -14 -31 -1 -14 -14 -40 
-1 -18 -29 -34 -1 -27 -4 -31 0 -48 -1 -23 -14 -42 -1 -33 
4561 1755 49 MP stroke
gr

24 w
c14
0 sg
%%IncludeResource: font Helvetica
/Helvetica /ISOLatin1Encoding 120 FMSR

 682 3632 mt 
( ) s
4849  344 mt 
( ) s
6 w
1 sg
0 1092 1041 0 0 -1092 3737 3471 4 MP
PP
-1041 0 0 1092 1041 0 0 -1092 3737 3471 5 MP stroke
4 w
DO
SO
6 w
0 sg
3737 3471 mt 4778 3471 L
3737 2379 mt 4778 2379 L
3737 3471 mt 3737 2379 L
4778 3471 mt 4778 2379 L
3737 3471 mt 4778 3471 L
3737 3471 mt 3737 2379 L
3737 3471 mt 4778 3471 L
3737 2379 mt 4778 2379 L
3737 3471 mt 3737 2379 L
4778 3471 mt 4778 2379 L
4205 2517 mt 
(result50) s
gs 3737 2379 1042 1093 rc
24 w
c8
360 0 3808 2475 2 MP stroke
gr

24 w
c8
0 sg
4205 2667 mt 
(result60) s
gs 3737 2379 1042 1093 rc
c9
360 0 3808 2625 2 MP stroke
gr

c9
0 sg
4205 2817 mt 
(result70) s
gs 3737 2379 1042 1093 rc
c10
360 0 3808 2775 2 MP stroke
gr

c10
0 sg
4205 2968 mt 
(result80) s
gs 3737 2379 1042 1093 rc
c11
360 0 3808 2925 2 MP stroke
gr

c11
0 sg
4205 3118 mt 
(result90) s
gs 3737 2379 1042 1093 rc
c12
360 0 3808 3075 2 MP stroke
gr

c12
0 sg
4205 3268 mt 
(result100) s
gs 3737 2379 1042 1093 rc
c13
360 0 3808 3225 2 MP stroke
gr

c13
0 sg
4205 3418 mt 
(result110) s
gs 3737 2379 1042 1093 rc
c14
360 0 3808 3375 2 MP stroke
6 w
gr

6 w
c14

end %%Color Dict

eplot
%%EndObject

epage
end

showpage

%%Trailer
%%EOF
